Nanosight Analysis
…
Average the three technical replicate readings

data3 <- data2 %>% 
  group_by(particle_size,Sample_ID,Dilution_factor,Injection) %>% 
  summarise( tech_N = length(True_Count),
             tech_mean = mean(True_Count),
             tech_sd = sd(True_Count),
             tech_se = tech_sd/sqrt(tech_N))
data3

## Source: local data frame [82,000 x 8]
## Groups: particle_size, Sample_ID, Dilution_factor [?]
## 
##    particle_size Sample_ID Dilution_factor Injection tech_N tech_mean
##            <dbl>    <fctr>           <dbl>    <fctr>  <int>     <dbl>
## 1            0.5         1             500         1      3         0
## 2            0.5         1             500         2      3         0
## 3            0.5        10             500         1      3         0
## 4            0.5        10             500         2      3         0
## 5            0.5        11             500         1      3         0
## 6            0.5        11             500         2      3         0
## 7            0.5        12             500         1      6         0
## 8            0.5        12             500         2      3         0
## 9            0.5        13             500         1      3         0
## 10           0.5        13             500         2      3         0
## # ... with 81,990 more rows, and 2 more variables: tech_sd <dbl>,
## #   tech_se <dbl>

test1 <- left_join(tc1,data3, by= "Sample_ID")

Summarize samples by injection (average both injections)

data4 <- data3 %>% 
  group_by(particle_size,Sample_ID,Dilution_factor) %>% 
  summarise( inj_N = length(tech_mean),
             inj_mean = mean(tech_mean),
             inj_sd = sd(tech_mean),
             inj_se = inj_sd/sqrt(inj_N))
data4

## Source: local data frame [41,000 x 7]
## Groups: particle_size, Sample_ID [?]
## 
##    particle_size Sample_ID Dilution_factor inj_N inj_mean inj_sd inj_se
##            <dbl>    <fctr>           <dbl> <int>    <dbl>  <dbl>  <dbl>
## 1            0.5         1             500     2        0      0      0
## 2            0.5        10             500     2        0      0      0
## 3            0.5        11             500     2        0      0      0
## 4            0.5        12             500     2        0      0      0
## 5            0.5        13             500     2        0      0      0
## 6            0.5        14             500     2        0      0      0
## 7            0.5        15             500     2        0      0      0
## 8            0.5        16             500     2        0      0      0
## 9            0.5        17             500     2        0      0      0
## 10           0.5        18             500     2        0      0      0
## # ... with 40,990 more rows
…
test3 <- test2 %>% 
  group_by(Day,Sample_ID) %>% 
  summarise(particle_conc=sum(inj_mean))
test3

## Source: local data frame [40 x 3]
## Groups: Day [?]
## 
##       Day Sample_ID particle_conc
##    <fctr>     <chr>         <dbl>
## 1       1         1  124235076333
## 2       1         2   89249062500
## 3       1         3  175595167167
## 4       1         4  153741474667
## 5       1         5  182057049833
## 6       1         6  282458569250
## 7       5        10  306075805167
## 8       5        11  241497990000
## 9       5        12  336677212208
## 10      5         7  167230730583
## # ... with 30 more rows
…
